<?xml version="1.0" encoding="utf-8"?>
<!-- Generator: Adobe Illustrator 15.0.2, SVG Export Plug-In . SVG Version: 6.00 Build 0)  -->
<!DOCTYPE svg PUBLIC "-//W3C//DTD SVG 1.1//EN" "http://www.w3.org/Graphics/SVG/1.1/DTD/svg11.dtd" [
	<!ENTITY ns_flows "http://ns.adobe.com/Flows/1.0/">
	<!ENTITY ns_extend "http://ns.adobe.com/Extensibility/1.0/">
	<!ENTITY ns_ai "http://ns.adobe.com/AdobeIllustrator/10.0/">
	<!ENTITY ns_graphs "http://ns.adobe.com/Graphs/1.0/">
	<!ENTITY ns_vars "http://ns.adobe.com/Variables/1.0/">
	<!ENTITY ns_imrep "http://ns.adobe.com/ImageReplacement/1.0/">
	<!ENTITY ns_sfw "http://ns.adobe.com/SaveForWeb/1.0/">
	<!ENTITY ns_custom "http://ns.adobe.com/GenericCustomNamespace/1.0/">
	<!ENTITY ns_adobe_xpath "http://ns.adobe.com/XPath/1.0/">
]>
<svg version="1.1"
	 xmlns:x="&ns_extend;" xmlns:i="&ns_ai;" xmlns:graph="&ns_graphs;" i:viewOrigin="349.99951 475.49951" i:rulerOrigin="-349.99951 -325.5" i:pageBounds="349.99951 475.49951 448.99951 325.5"
	 xmlns="http://www.w3.org/2000/svg" xmlns:xlink="http://www.w3.org/1999/xlink" xmlns:a="http://ns.adobe.com/AdobeSVGViewerExtensions/3.0/"
	 x="0px" y="0px" width="99px" height="149.99951px" viewBox="0 0 99 149.99951" enable-background="new 0 0 99 149.99951"
	 xml:space="preserve">
<metadata><?xpacket begin="﻿" id="W5M0MpCehiHzreSzNTczkc9d"?>
<x:xmpmeta xmlns:x="adobe:ns:meta/" x:xmptk="Adobe XMP Core 5.0-c060 61.134777, 2010/02/12-17:32:00        ">
   <rdf:RDF xmlns:rdf="http://www.w3.org/1999/02/22-rdf-syntax-ns#">
      <rdf:Description rdf:about=""
            xmlns:xmp="http://ns.adobe.com/xap/1.0/"
            xmlns:xmpGImg="http://ns.adobe.com/xap/1.0/g/img/">
         <xmp:CreatorTool>Adobe Illustrator CS5</xmp:CreatorTool>
         <xmp:CreateDate>2016-05-23T13:39:39-05:00</xmp:CreateDate>
         <xmp:Thumbnails>
            <rdf:Alt>
               <rdf:li rdf:parseType="Resource">
                  <xmpGImg:width>172</xmpGImg:width>
                  <xmpGImg:height>256</xmpGImg:height>
                  <xmpGImg:format>JPEG</xmpGImg:format>
                  <xmpGImg:image>/9j/4AAQSkZJRgABAgEASABIAAD/7QAsUGhvdG9zaG9wIDMuMAA4QklNA+0AAAAAABAASAAAAAEA&#xA;AQBIAAAAAQAB/+4ADkFkb2JlAGTAAAAAAf/bAIQABgQEBAUEBgUFBgkGBQYJCwgGBggLDAoKCwoK&#xA;DBAMDAwMDAwQDA4PEA8ODBMTFBQTExwbGxscHx8fHx8fHx8fHwEHBwcNDA0YEBAYGhURFRofHx8f&#xA;Hx8fHx8fHx8fHx8fHx8fHx8fHx8fHx8fHx8fHx8fHx8fHx8fHx8fHx8fHx8f/8AAEQgBAACsAwER&#xA;AAIRAQMRAf/EAaIAAAAHAQEBAQEAAAAAAAAAAAQFAwIGAQAHCAkKCwEAAgIDAQEBAQEAAAAAAAAA&#xA;AQACAwQFBgcICQoLEAACAQMDAgQCBgcDBAIGAnMBAgMRBAAFIRIxQVEGE2EicYEUMpGhBxWxQiPB&#xA;UtHhMxZi8CRygvElQzRTkqKyY3PCNUQnk6OzNhdUZHTD0uIIJoMJChgZhJRFRqS0VtNVKBry4/PE&#xA;1OT0ZXWFlaW1xdXl9WZ2hpamtsbW5vY3R1dnd4eXp7fH1+f3OEhYaHiImKi4yNjo+Ck5SVlpeYmZ&#xA;qbnJ2en5KjpKWmp6ipqqusra6voRAAICAQIDBQUEBQYECAMDbQEAAhEDBCESMUEFURNhIgZxgZEy&#xA;obHwFMHR4SNCFVJicvEzJDRDghaSUyWiY7LCB3PSNeJEgxdUkwgJChgZJjZFGidkdFU38qOzwygp&#xA;0+PzhJSktMTU5PRldYWVpbXF1eX1RlZmdoaWprbG1ub2R1dnd4eXp7fH1+f3OEhYaHiImKi4yNjo&#xA;+DlJWWl5iZmpucnZ6fkqOkpaanqKmqq6ytrq+v/aAAwDAQACEQMRAD8A9U4q7FXYq7FXYq7FWndE&#xA;FWNBiqGe+HRFr7nDSLUWuZm/ap8tsUWplmPUk/PFWsVbBI6GmKr1uJl6Mfp3/XitqyXx/bX6RjSb&#xA;RMcscg+E19u+BK7FXYq7FXYq7FXYq7FXYq7FXYq7FXYqh57sL8Kbt3PYYUWg2dmNWNTihrFXUOKt&#xA;8Tja03wONpprgcbWncTiimsVcCQag0PjiqLhvP2ZP+C/rim0UCCKjpgS7FXYq7FXYq7FXYq7FXYq&#xA;7FUJc3Naoh27thQShcUOAJxVeFGBNN4pdirsVdirsVaIBxVaVIwsaaxVXt7gxni26H8MVBRwIIqN&#xA;wemBk7FXYq7FXYq7FXYq7FUPdz8RwX7R6nwGFBQWKGwK4qAvwMnYqqpbSNufhHviqstrGOpJxVd9&#xA;Xh/l/E4q0bWI9Kj5H+uKqT2rjdTy9uhxVQIINCKHwxV2KrWXuMKCFuKETaT0Ppt0P2fnikFGYEux&#xA;V2KuxV2KuxVbI4RCx6DFUtZizFj1OFi0BU4qqAUwMm1UsQAKk4qi4oFTc7t44qq4q7FXYq7FXYqt&#xA;kiSQUYfI98VQUkbRtQ/QfHFVuKrGFN8KC1ihMbeX1Iwf2hscDIKmKuxV2KuxV2KoW+k+yg+ZwhBQ&#xA;mKFyjauApC7FKMgi4LU/aPXFVXFXYq7FXYq7FXYq7FVsiB1Kn6DiqBZSrFT1GKtEVGKqeFir2b8Z&#xA;OPZv1jEqEdgZOxV2KuxV2KpdcNymY+Bp92FiVPFVTAyVbdOUlT0XfFUZirsVdirsVdirsVdirsVd&#xA;iqHu02Dj5HFUNiqxhvhDEuVirBh2NcVTQGorgZOxV2KuxV2KpUTUk+OFi2vXFQvwMkXaLRCfE/qx&#xA;VWxV2KuxV2KuxV2KuxV2KuxVbKvKNh7bYqgMVWv0whBW4oTKA1hQ+wwMl+KuxV2KtP8AYb5HFUrw&#xA;sW164lQvwMkbb/3K/T+vFVTFXYq7FXYq7FXYq7FXYq7FXYqlw6Yq03TEIKzChMbb+4T/AD74EhUx&#xA;S7FXYq0/2G+RxVK8LFtOuJUL8DJG2/8Acr9P68VVMVdirsVdirsVdirsVdirsVdiqXDpirTdMQgr&#xA;MKExtv7hP8++BIVMUuxV2KtP9hvkcVSvCxbTriVC/AyRtv8A3K/T+vFVTFXYq7FXYq7FXYq7FXYq&#xA;7FXYqlw6Yq03TEIKzChMbb+4T/PvgSFTFLsVdirT/Yb5HFUrwsW064lQvwMkbb/3K/T+vFVTFXYq&#xA;7FXYq7FXYq7FXYq7FXYqlw6Yq03TEIKzChMbb+4T/PvgSFTFLsVdirT/AGG+RxVK8LFtOuJUL8DJ&#xA;G2/9yv0/rxVUxV2KuxV2KuxV2KuxV2KuxV2KpcOmKtN0xCCswoTG2/uE/wA++BIVMUuxV2KtP9hv&#xA;kcVSvCxbTriVC/AyRtv/AHK/T+vFVTFXYq7FXYq7FXYq7FXYq7FXYqlw6Yq03TEIKzChMbb+4T/P&#xA;vgSFTFLsVS7VNe0/TaLOxaUioiQVaniegGartHtnBpNpm5fzRz/Y5GHSzycuSUt55tCCBbSb7dVz&#xA;R/6McX+py+Ycr+TJd4Qn+LLf/fD/AHjD/oxxf6nL5hH8ly7w2PNtuD/cP94x/wBGOL/U5fMJ/kyX&#xA;eG/8XW3/ACzv94wf6McX+py+YT/Jsu8K8Xne1RAptnNP8oY/6McX+py+YX+TJd4X/wCOrT/llk/4&#xA;IY/6McX+py+YX+TJd4d/jq0/5ZZP+CGP+jHF/qcvmF/kyXeHf46tP+WWT/ghj/oxxf6nL5hf5Ml3&#xA;h3+OrT/llk/4IY/6McX+py+YX+TJd4WP59tEp/oshr/lLk4e1uOX8EvmEjsuR6hb/wArBs/+WST/&#xA;AIJcs/0VY/5kvmE/yVL+cHf8rBs/+WST/glx/wBFWP8AmS+YX+Spfzg7/lYNn/yySf8ABLj/AKKs&#xA;f8yXzC/yVL+cHf8AKwbP/lkk/wCCXH/RVj/mS+YX+Spfzg7/AJWDZ/8ALJJ/wS4/6Ksf8yXzC/yV&#xA;L+cEL/ja1/5Zn+8Y/wCirH/Ml8wj+Spfzg0fOtqR/vM/3jH/AEVY/wCZL5hf5Kl/ODX+M7X/AJZn&#xA;+8Y/6K8f8yXzCP5Jl/OCJi8/WaRhTaSGnfkuP+irH/Ml8wn+Spfzgm+keaNM1OT0Yy0VwdxFIAK0&#xA;/lIJBzZ6DtrBqTwi4z7j+hxs+injFncJvm3cR5bd3Ml1cyXEpq8rFj9Pb6M8W1OolmySyS5yNvUQ&#xA;gIxAHRRyhk7FXYq7FXYq7FXYq7FXYqo3H7P05kYOrOKll7J2KuxV2KuxV2KuxV2KuxVdFLJFKksZ&#xA;4yRkMjDsQajJwmYSEhzCJRBFF696h9D1Kb8eVPornrXH6L8nk63p5Vnib1DsVdirsVdirsVdirsV&#xA;dirsVUbj9n6cyMHVnFSy9k7FXYq7FXYq7FXYq7FXYq7FXrv/AB5/88/+Nc9b/wAn/m/oeT/i+Ly3&#xA;PFXp3Yq7FXYq7FXYq7FXYq7FXYqo3H7P05kYOrOKll7J2KuxV2KuxV2KuxV2KuxV2KvXf+PP/nn/&#xA;AMa563/k/wDN/Q8n/F8Xl7oyOyMKMpIYeBGeLyiYkg8w9ODa3Iq7FXYq7FXYq7FXYq7FXYqo3H7P&#xA;05kYOrOKll7J2KuxV2KuxV2KuxV2KuxVtVZ2CqCzMaKB1JOGMSTQ5qTT17g31f0/2uHH6aUz1zhP&#xA;BXk8le9vPvzLdNKubO4toxzvfVMwNaVj4UIp3PPfOM9ouysXiDINjO7+Fb/bu7/scHLGQkfpqvjb&#xA;C/8AEl1/vpPx/rnO/wAnQ7y7n8pHvd/iS6/30n4/1x/k6HeV/KR73f4kuv8AfSfj/XH+Tod5X8pH&#xA;vd/iS6/30n4/1x/k6HeV/KR73f4kuv8AfSfj/XH+Tod5X8pHvd/iS6/30n4/1x/k6HeV/KR73f4k&#xA;uv8AfSfj/XH+Tod5X8pHvd/iS6/30n4/1x/k6HeV/KR73f4kuv8AfSfj/XH+Tod5X8pHvQ155nu1&#xA;4Uij3r/N7e+XYez477lfysR1Q3+Krz/fMf8Aw39cv/IR7yn8uHf4qvP98x/8N/XH8hHvK/lw7/FV&#xA;5/vmP/hv64/kI95X8uHf4qvP98x/8N/XH8hHvK/lw7/FV5/vmP8A4b+uP5CPeV/Lh3+Krz/fMf8A&#xA;w39cfyEe8r+XDv8AFV5/vmP/AIb+uP5CPeV/Lh3+Krz/AHzH/wAN/XH8hHvK/lw7/FV5/vmP/hv6&#xA;4/kI95X8uGYfldqJ1XzI8dzClLe3eeIiuzrIig7nwc5uOw9Bj8fiO/CLHv2dX2tHw8Wx5mvvet52&#xA;jzDzf84v+lR/0cf8ys5v2h/g/wA79D0XYH8f+b+l5vnNPRuxV2KuxV2KuxV2KuxV2KoS/wD2Pp/h&#xA;luJiULlyHYq7FXYq7FXYq7FXYq7FWffkv/ylN1/zAyf8nos2/Yv96f6v6Q6btz+5H9b9Bez507yz&#xA;zf8AOL/pUf8ARx/zKzm/aH+D/O/Q9F2B/H/m/peb5zT0bsVdirsVdirsVdirsVQGt63p+i6fJf3z&#xA;8IUoABuzMeiqO5OX6fTzzT4Y82jUaiOKHFLk81vfziuJZ/3OmosCn4Q8hLke5AoM6LH2CAN5b+50&#xA;Mu3je0dveyryz5q0/X7ZngBiuI6etbMQWWvcH9pffNZq9FPAaO4PV22j1sM4sbEcwnWYjmOxV2Ku&#xA;xV2KuxV2KuxVn35L/wDKU3X/ADAyf8nos2/Yv96f6v6Q6btz+5H9b9Bez507yzzf84v+lR/0cf8A&#xA;MrOb9of4P879D0XYH8f+b+l5vnNPRuxV2KuxV2KuxV2KuxV5d+dUtxz0qHcW5Ez+xccRv8gfxzpf&#xA;Z+I9Z67fpec7ekfQOm7zDOkedZR+W8k6+bLZY68HSVZqfyemWFf9kFzW9rAeAb8vvdn2QSNQK8/u&#xA;ex5yb17sVdirsVdirsVdirsVZ9+S/wDylN1/zAyf8nos2/Yv96f6v6Q6btz+5H9b9Bez507yzzf8&#xA;4v8ApUf9HH/MrOb9of4P879D0XYH8f8Am/peb5zT0bsVdirsVdirsVdirsVSXzZ5Ws/MWm/VJ2MU&#xA;sZ529wBUo1KdO4PcZmaLWS08+IbjqHD1mjjnhwnY9C8G1nTJdL1S50+V1kktnKM61oadxXO30+YZ&#xA;YCY6vF58JxzMD0es+TfKFtoduZ2f1764QepLSgVTvwQfr8c5fX645jXKIes7P0EcAvnIslzXuxdi&#xA;rsVdirsVdirsVdirPvyX/wCUpuv+YGT/AJPRZt+xf70/1f0h03bn9yP636C9nzp3lnm/5xf9Kj/o&#xA;4/5lZzftD/B/nfoei7A/j/zf0vN85p6N2KuxV2KuxV2KuxV2KuxV8/8AnxHHnHVFKkEzVAI3IIBH&#xA;353fZp/weHueI7RH+ES972e3BEEYIoQqgj6M5CXMvZx5BUwJdirsVdirsVdirsVdirPvyX/5Sm6/&#xA;5gZP+T0WbfsX+9P9X9IdN25/cj+t+gvZ86d5Z5v+cX/So/6OP+ZWc37Q/wAH+d+h6LsD+P8Azf0v&#xA;N85p6N2KuxV2KuxV2KuxV2KuxVKtU0rTJruG8ltIpLuP7E7IpcUpSjEV27ZlYc0xExBPD3NM8EDI&#xA;SIHEOrsLN2KuxV2KuxV2KuxV2KuxVn35L/8AKU3X/MDJ/wAnos2/Yv8Aen+r+kOm7c/uR/W/QXs+&#xA;dO8s83/OL/pUf9HH/MrOb9of4P8AO/Q9F2B/H/m/peb5zT0bsVdirsVdirsVdirsVdiqEv8A9j6f&#xA;4ZbiYlC5ch2KuxV2KuxV2KuxV2KuxVn35L/8pTdf8wMn/J6LNv2L/en+r+kOm7c/uR/W/QXs+dO8&#xA;s8480ahDrF4Ocavb25ZbfkAftU5Nv/NxGeX9s9tT1Gb0Gscdh+v4vRaLEcMdjueaTfo6w/5Z4/8A&#xA;gRmo/N5O9zPFl3l36OsP+WeP/gRj+byd6+LLvLv0dYf8s8f/AAIx/N5O9fFl3l36OsP+WeP/AIEY&#xA;/m8neviy7y79HWH/ACzx/wDAjH83k718WXeXfo6w/wCWeP8A4EY/m8neviy7y79HWH/LPH/wIx/N&#xA;5O9fFl3l36OsP+WeP/gRj+byd6+LLvLv0dYf8s8f/AjH83k718WXeVC50zTzxrbRnr+yMvw6rJvu&#xA;yjkl3qP6L03/AJZo/wDgRl/5rJ3svEl3u/Rem/8ALNH/AMCMfzWTvXxJd7v0Xpv/ACzR/wDAjH81&#xA;k718SXe79F6b/wAs0f8AwIx/NZO9fEl3u/Rem/8ALNH/AMCMfzWTvXxJd7v0Xpv/ACzR/wDAjH81&#xA;k718SXe79F6b/wAs0f8AwIx/NZO9fEl3u/Rem/8ALNH/AMCMfzWTvXxJd7v0Xpv/ACzR/wDAjH81&#xA;k718SXemGhXCaLfi8soURyOEgCgcoyQStf8AYjMnSdp5cGQTBvvHeGjUY/FjwyerfXYPqP12v7j0&#xA;vWr/AJHHl+rPSfzEfC8X+Hh4vhVvL+GeLh63Ty7PFnp3Yq7FXYq7FXYq7FXYq7FXYqo3H7P05kYO&#xA;rOKll7J2KuxV2KuxV2KuxV2KuxV2KvSv+mO/7d3/ADIz0n/nXf8AJD/ePOf8iP8AP/SwDPJ3fOxV&#xA;2KuxV2KuxV2KuxV2KuxVRuP2fpzIwdWcVLL2TsVdirsVdirsVdirsVdirsVelf8ATHf9u7/mRnpP&#xA;/Ou/5If7x5z/AJEf5/6WAZ5O752KuxV2KuxV2KuxV2KuxV2KqNx+z9OZGDqzipZeydirsVdirsVd&#xA;irsVdirsVdir0r/pjv8At3f8yM9J/wCdd/yQ/wB485/yI/z/ANLGvMGgXNlcySxRl7RyWRlFeNd+&#xA;LU6UziO2+xcmnyGUReImwR08i7LS6qM4gE+pJc55zHYq7FXYq7FXYq7FXYq7FVG4/Z+nMjB1ZxUs&#xA;vZOxV2KuxV2KuxV2KuxV2Kppovl+91OdQqMltUepORQBe/GvU5tOzuysupmKFQ6y/V3lxtRqo4x/&#xA;S7npf1aH6t9W4/ueHp8P8mnGn3Z6R4MeDgr01Xw5PN8Z4uLq/wD/2Q==</xmpGImg:image>
               </rdf:li>
            </rdf:Alt>
         </xmp:Thumbnails>
         <xmp:MetadataDate>2016-05-23T13:39:42-05:00</xmp:MetadataDate>
         <xmp:ModifyDate>2016-05-23T13:39:42-05:00</xmp:ModifyDate>
      </rdf:Description>
      <rdf:Description rdf:about=""
            xmlns:xmpTPg="http://ns.adobe.com/xap/1.0/t/pg/"
            xmlns:stDim="http://ns.adobe.com/xap/1.0/sType/Dimensions#"
            xmlns:xmpG="http://ns.adobe.com/xap/1.0/g/">
         <xmpTPg:MaxPageSize rdf:parseType="Resource">
            <stDim:w>99.000000</stDim:w>
            <stDim:h>149.999512</stDim:h>
            <stDim:unit>Pixels</stDim:unit>
         </xmpTPg:MaxPageSize>
         <xmpTPg:NPages>1</xmpTPg:NPages>
         <xmpTPg:HasVisibleTransparency>False</xmpTPg:HasVisibleTransparency>
         <xmpTPg:HasVisibleOverprint>False</xmpTPg:HasVisibleOverprint>
         <xmpTPg:PlateNames>
            <rdf:Seq>
               <rdf:li>Cyan</rdf:li>
               <rdf:li>Magenta</rdf:li>
               <rdf:li>Yellow</rdf:li>
               <rdf:li>Black</rdf:li>
            </rdf:Seq>
         </xmpTPg:PlateNames>
         <xmpTPg:SwatchGroups>
            <rdf:Seq>
               <rdf:li rdf:parseType="Resource">
                  <xmpG:groupName>Grupo de muestras por defecto</xmpG:groupName>
                  <xmpG:groupType>0</xmpG:groupType>
               </rdf:li>
            </rdf:Seq>
         </xmpTPg:SwatchGroups>
      </rdf:Description>
      <rdf:Description rdf:about=""
            xmlns:dc="http://purl.org/dc/elements/1.1/">
         <dc:format>image/svg+xml</dc:format>
      </rdf:Description>
      <rdf:Description rdf:about=""
            xmlns:xmpMM="http://ns.adobe.com/xap/1.0/mm/"
            xmlns:stEvt="http://ns.adobe.com/xap/1.0/sType/ResourceEvent#">
         <xmpMM:DerivedFrom rdf:parseType="Resource"/>
         <xmpMM:DocumentID>xmp.did:0A40CE4D0E21E611991CF8AC9E64DA53</xmpMM:DocumentID>
         <xmpMM:InstanceID>xmp.iid:0A40CE4D0E21E611991CF8AC9E64DA53</xmpMM:InstanceID>
         <xmpMM:OriginalDocumentID>xmp.did:0A40CE4D0E21E611991CF8AC9E64DA53</xmpMM:OriginalDocumentID>
         <xmpMM:History>
            <rdf:Seq>
               <rdf:li rdf:parseType="Resource">
                  <stEvt:action>saved</stEvt:action>
                  <stEvt:instanceID>xmp.iid:0A40CE4D0E21E611991CF8AC9E64DA53</stEvt:instanceID>
                  <stEvt:when>2016-05-23T13:39:42-05:00</stEvt:when>
                  <stEvt:softwareAgent>Adobe Illustrator CS5</stEvt:softwareAgent>
                  <stEvt:changed>/</stEvt:changed>
               </rdf:li>
            </rdf:Seq>
         </xmpMM:History>
      </rdf:Description>
   </rdf:RDF>
</x:xmpmeta>
                                                                                                    
                                                                                                    
                                                                                                    
                                                                                                    
                                                                                                    
                                                                                                    
                                                                                                    
                                                                                                    
                                                                                                    
                                                                                                    
                                                                                                    
                                                                                                    
                                                                                                    
                                                                                                    
                                                                                                    
                                                                                                    
                                                                                                    
                                                                                                    
                                                                                                    
                                                                                                    
                           
<?xpacket end="w"?>
	</metadata>
<g id="Capa_1" i:knockout="Off" i:layer="yes" i:dimmedPercent="50" i:rgbTrio="#4F008000FFFF">
	<g id="Layer_1" i:knockout="Off">
	</g>
	<g i:knockout="Off">
		<path fill="#ECF0F1" d="M23.89648,95.14209V40.28516C23.89648,26.35645,35.41797,15,49.28613,15h0.42676
			c13.86816,0,25.38965,11.57129,25.38965,25.5v54.85693h14.93555V40.28516C90.03809,18.21387,72.3291,0,49.71289,0h-0.42676
			C27.31055,0,9.1748,17.78516,9.1748,40.28516v54.85693H23.89648z"/>
		<path fill="#F2F2F2" d="M82.78418,40.28516v54.85693H75.5293V40.28516C75.5293,26.35645,64.22168,15,50.35254,15h-0.42578
			c-13.86914,0-25.39063,11.57129-25.39063,25.5v54.85693h-7.25391V40.28516C17.28223,22.07129,31.57715,7.5,49.92676,7.5h0.42578
			C68.06152,7.28516,82.78418,22.07129,82.78418,40.28516z"/>
		<polygon fill="#E77E22" points="49.28613,90.42725 2.34668,90.42725 2.34668,90.42725 2.34668,127.49951 2.34668,127.49951 
			49.28613,127.49951 		"/>
		<path fill="#F1C410" d="M49.28613,68.35645H5.76074C2.77344,68.35645,0,70.71387,0,74.14258v12.4292
			c0,2.35547,1.49316,3.85547,2.34668,4.28516h46.93945V68.35645z"/>
		<path fill="#F1C410" d="M2.34668,127.49951C1.91992,128.35693,0,129.42725,0,131.78467v12.42969
			c0,3,2.34668,5.78516,5.76074,5.78516h43.52539v-22.5H2.34668z"/>
		<rect x="49.28613" y="90.42725" fill="#D46C22" width="47.36621" height="37.07227"/>
		<path fill="#EEB41E" d="M96.22559,90.85693c0.85352-0.85742,2.34668-1.92969,2.34668-4.71484V73.71387
			c0-1.5-0.42578-2.78516-1.49316-3.85742c-0.85352-0.85645-2.34668-1.5-3.84082-1.5H49.28613v22.50049H96.22559z"/>
		<path fill="#EEB41E" d="M49.28613,149.99951h43.95215c2.77441,0,5.76172-2.35742,5.76172-5.78516v-12.42969
			c0-2.35742-1.49414-3.85742-2.34766-4.28516H49.28613V149.99951z"/>
		<path fill="#1B1B1B" d="M55.04688,105.85693c0-2.78516-2.34668-5.35742-5.33398-5.35742
			c-2.77344,0-5.33398,2.35742-5.33398,5.35742c0,2.35742,1.49414,4.28516,3.41406,4.71484l0,0v5.35547
			c0,0.85742,0.85352,1.92969,1.91992,1.92969l0,0c0.85352,0,1.91992-0.85742,1.91992-1.92969v-5.35547l0,0
			C53.55371,109.71436,55.04688,107.78467,55.04688,105.85693z"/>
	</g>
</g>
</svg>
